download_datetime:2015-11-06 1357
order_datetime:2015-11-05 1014
layout_name:Demo
columns:5
column_width:16
column_spacing:5
left_margin:0
row_spacing:5
line_item:pin
line_item:empty
line_item:empty
line_item:description
line_item:serial_number
line_item:expiry_date
voucher_summary:Cell-C 10.00,10,100.00
voucher_summary:MTN 5.00,5,25.00
voucher_summary:Vodacom 12.00,5,60.00
voucher_fields:description,pin,serial_number,expiry_date
Cell-C 10.00,6374897623,100000000,2020-01-01
Cell-C 10.00,6323457623,100000001,2020-01-01
Cell-C 10.00,6376896666,100000002,2020-01-01
Cell-C 10.00,6374891345,100000003,2020-01-01
Cell-C 10.00,6374803463,100000004,2020-01-01
Cell-C 10.00,6374806733,100000005,2020-01-01
Cell-C 10.00,6374893572,100000006,2020-01-01
Cell-C 10.00,6374824562,100000007,2020-01-01
Cell-C 10.00,6374834523,100000008,2020-01-01
Cell-C 10.00,6374823423,100000009,2020-01-01
MTN 5.00,4562455523,200000009,2020-01-01
MTN 5.00,3456547623,200000010,2020-01-01
MTN 5.00,3457637623,200000011,2020-01-01
MTN 5.00,2456597622,200000012,2020-01-01
MTN 5.00,3456546623,200000013,2020-01-01
Vodacom 12.00,2562190623343,300000009,2020-01-01
Vodacom 12.00,2436234623344,300000010,2020-01-01
Vodacom 12.00,3562456623546,300000011,2020-01-01
Vodacom 12.00,1451357622123,300000012,2020-01-01
Vodacom 12.00,2374897623135,300000013,2020-01-01
