6374897623                    6323457623                    6376896666                    6374891345                    6374803463                    





6374806733                    6374893572                    6374824562                    6374834523                    6374823423                    





4562455523                    3456547623                    3457637623                    2456597622                    3456546623                    





2562190623343                 2436234623344                 3562456623546                 1451357622123                 2374897623135                 





