    6374897623                    6323457623                    6376896666                    6374823423                    4562455523                    


    Cell-C 10.00                  Cell-C 10.00                  Cell-C 10.00                  Cell-C 10.00                  MTN 5.00                      
                                                                                                                                                          
                                                                                                                                                          





    3456547623                    3457637623                    2456597622                    1451357622123                 2374897623135                 


    MTN 5.00                      MTN 5.00                      MTN 5.00                      Vodacom 12.00                 Vodacom 12.00                 
                                                                                                                                                          
                                                                                                                                                          





